{
    "adminRegistrationIds" : ["alice"],

    "passwordSalt": "",

    "hostname" : "localhost",
    "port" : 8080,

    "smtpHost": "",
    "smtpPort": "25",
    "smtpTls": false,
    "smtpUser": "",
    "smtpFrom": "",
    "smtpPassword": "",

    "sslKeyPath" : "",
    "sslCertPath" : "",

    "mongoDbConnectionString" : "",
    "mongoDbDatabaseName" : "",

    "isProd": false,
    "sendEmails" : false,
    "useHttps" : false,
    "useSslWebSocket" : false,
    "useMongoDb" : false,
    "useProdLogging" : false,

    "maxHeapSize": 3
}
